[gd_resource type="StyleBoxTexture" load_steps=2 format=2]

[ext_resource path="res://texture/UI/textbox/butt2.png" type="Texture" id=1]

[resource]
texture = ExtResource( 1 )
region_rect = Rect2( 0, 0, 1082, 412 )
margin_left = 92.0958
margin_right = 90.1697
margin_top = 43.2507
margin_bottom = 48.247
