[gd_resource type="StyleBoxTexture" load_steps=2 format=2]

[ext_resource path="res://texture/UI/textbox/textbox-bg-dark.png" type="Texture" id=1]

[resource]
content_margin_left = 35.0
content_margin_right = 0.0
content_margin_top = 5.0
content_margin_bottom = 75.0
texture = ExtResource( 1 )
region_rect = Rect2( 0, 0, 1082, 412 )
margin_left = 111.254
margin_right = 137.817
margin_top = 134.022
margin_bottom = 134.022
