[gd_resource type="Resource" load_steps=4 format=2]

[ext_resource path="res://sound/music/test.mp3" type="AudioStream" id=1]
[ext_resource path="res://resdef/MapData.gd" type="Script" id=2]
[ext_resource path="res://sound/sfx/env/meadow.wav" type="AudioStream" id=3]

[resource]
script = ExtResource( 2 )
music = ExtResource( 1 )
ambience = ExtResource( 3 )
mapname = "Happy Place"
