[gd_resource type="Resource" load_steps=2 format=2]

[ext_resource path="res://resdef/Help.gd" type="Script" id=1]

[resource]
script = ExtResource( 1 )
help_name = [ "Text Speed", "Auto Continue", "Auto Speed" ]
help_desc = [ "[b]Text Speed[/b] determines the speed text is printed in dialogs.", "If enabled, [b]Auto-Continue[/b] will progress text without input after a while.", "This determines the speed that the text will progress without input, if [b]Auto-Continue[/b] is enabled." ]
