[gd_resource type="Resource" load_steps=2 format=2]

[ext_resource path="res://resdef/Help.gd" type="Script" id=1]

[resource]
script = ExtResource( 1 )
help_name = [ "Accept", "Cancel", "Open/Close Menu", "Up", "Down", "Left", "Right", "Focus Previous", "Focus Next", "Interact", "Run", "Run Toggle", "Move Up", "Move Down", "Move Left", "Move Right", "TTS Stop", "TTS Repeat", "Hint", "Read Coordinates", "Seen Object", "Zoom In", "Zoom Out", "Pan Up", "Pan Down", "Pan Left", "Pan Right" ]
help_desc = [ "[b]Accepts[/b] current input in a menu.", "[b]Cancels[/b] out of the current menu.", "[b]Opens/Closes[/b] the main menu in the overworld.", "Move [b]Up[/b] in a menu.", "Move [b]Down[/b] in a menu.", "Move [b]Left[/b] in a menu.", "Move [b]Right[/b] in a menu.", "Move to the [b]next focus[/b] element in a menu.", "Move to the [b]previous focus[/b] element in a menu.", "[b]Interacts[/b] with an object in the overworld.", "Makes the character [b]Run[/b] while holding down.

If [b]Run Toggle[/b] is enabled, holding down will make your character walk.", "If [b]Run Toggle[/b] is enabled, you can run without holding down the [b]Run[/b] key.", "Move [b]Up[/b] in the overworld.

This movement is impacted by the [b]Camera Adjusts Input[/b] setting.", "Move [b]Down[/b] in the overworld.

This movement is impacted by the [b]Camera Adjusts Input[/b] setting.", "Move [b]Left[/b] in the overworld.

This movement is impacted by the [b]Camera Adjusts Input[/b] setting.", "Move [b]Right[/b] in the overworld.

This movement is impacted by the [b]Camera Adjusts Input[/b] setting.", "Stops any [b]Text-to-Speech[/b].", "Repeats the last thing said by [b]Text-to-Speech[/b].", "Reads the [b]Tooltip[/b] of a menu item with [b]Text-to-Speech[/b].", "Reads the current player [b]Coordinates[/b] on the map with [b]Text-to-Speech[/b].", "Reports the object seen right in front of the player with [b]Text-to-Speech[/b].", "[b]Zooms In[/b] with the [b]Magnifier[/b].", "[b]Zooms Out[/b] with the [b]Magnifier[/b].", "[b]Pans Left[/b] with the [b]Magnifier[/b].", "[b]Pans Right[/b] with the [b]Magnifier[/b].", "[b]Pans Up[/b] with the [b]Magnifier[/b].", "[b]Pans Down[/b] with the [b]Magnifier[/b]." ]
