[gd_scene load_steps=3 format=2]

[ext_resource path="res://model/map/stone1.glb" type="PackedScene" id=1]
[ext_resource path="res://model/scene/map/stonetexture.tres" type="Material" id=2]


[node name="model" instance=ExtResource( 1 )]

[node name="Stone3" parent="." index="0"]
layers = 2
material/0 = ExtResource( 2 )
