[gd_scene load_steps=4 format=2]

[ext_resource path="res://Scene/Main.gd" type="Script" id=1]
[ext_resource path="res://Scene/UI/menu/MenuHUD.tscn" type="PackedScene" id=2]
[ext_resource path="res://Scene/UI/fade.tscn" type="PackedScene" id=3]

[node name="Main" type="Control"]
script = ExtResource( 1 )
__meta__ = {
"_edit_use_anchors_": false
}

[node name="ViewportContainer" type="ViewportContainer" parent="."]
margin_right = 1920.0
margin_bottom = 1080.0
mouse_filter = 1
stretch = true
__meta__ = {
"_edit_use_anchors_": false
}

[node name="Viewport" type="Viewport" parent="ViewportContainer"]
size = Vector2( 1920, 1080 )
handle_input_locally = false
render_target_update_mode = 3
audio_listener_enable_3d = true

[node name="Fade" parent="ViewportContainer/Viewport" instance=ExtResource( 3 )]
visible = false

[node name="HUD" parent="ViewportContainer/Viewport" instance=ExtResource( 2 )]
margin_left = 1400.0
margin_top = 1080.0
margin_right = 1400.0
margin_bottom = 1942.0
mouse_filter = 1

[connection signal="dialog" from="." to="." method="_on_Main_dialog"]
[connection signal="fadein" from="." to="." method="_on_Main_fadein"]
[connection signal="fadeout" from="." to="." method="_on_Main_fadeout"]
[connection signal="fadeoutEndMap" from="." to="." method="_on_Main_fadeoutEndMap"]
[connection signal="fadeoutTeleportMap" from="." to="." method="_on_Main_fadeoutTeleportMap"]
[connection signal="loadMap" from="." to="." method="_on_Main_loadMap"]
[connection signal="loadMapTeleport" from="." to="." method="_on_Main_loadMapTeleport"]
[connection signal="openMsgbox" from="." to="." method="_on_Main_openMsgbox"]
[connection signal="opendialog" from="." to="." method="_on_Main_opendialog"]
[connection signal="settingsTrigger" from="." to="." method="_on_Main_settingsTrigger"]
[connection signal="tree_exiting" from="." to="." method="_on_Main_tree_exiting"]
