[gd_scene load_steps=5 format=2]

[ext_resource path="res://model/scene/UI/interact_bubble.tscn" type="PackedScene" id=1]
[ext_resource path="res://sound/sfx/access/npclocator.wav" type="AudioStream" id=2]
[ext_resource path="res://Scene/character/template/NPC.gd" type="Script" id=3]


[sub_resource type="CylinderShape" id=1]
height = 4.25

[node name="NPC" type="KinematicBody" groups=["npc", "sightline"]]
transform = Transform( 1, 0, 0, 0, 1, 0, 0, 0, 1, 0, 1.55241, 0 )
collision_layer = 2
collision_mask = 39
script = ExtResource( 3 )

[node name="Tween" type="Tween" parent="."]

[node name="AccessCollisionPoint" type="Position3D" parent="."]
transform = Transform( 1, 0, 0, 0, 1, 0, 0, 0, 1, 0, 4.38707, 0.568913 )

[node name="EmotePoint" type="Spatial" parent="."]
transform = Transform( 2.18577, 0, 0, 0, 2.18577, 0, 0, 0, 2.18577, 0, 4.1595, -0.452273 )

[node name="interact_bubble" parent="EmotePoint" instance=ExtResource( 1 )]

[node name="CollisionShape" type="CollisionShape" parent="."]
transform = Transform( 2.92394, 1.0371e-07, 6.91396e-08, 1.19209e-07, 4.58858, 1.19209e-07, 0, 0, 4.13581, 0.189135, 10.0844, 2.15174 )
shape = SubResource( 1 )

[node name="AccessSound" type="AudioStreamPlayer3D" parent="."]
transform = Transform( 1, 0, 0, 0, 1, 0, 0, 0, 1, 0, 4.14755, 0 )
stream = ExtResource( 2 )
unit_size = 6.2
max_distance = 100.0
out_of_range_mode = 1
bus = "AccessSound"

[node name="NPCTalkArea" type="Area" parent="."]
collision_layer = 256
collision_mask = 256

[node name="CollisionShape" type="CollisionShape" parent="NPCTalkArea"]
transform = Transform( 5.3585, 1.90062e-07, 1.26707e-07, 1.19209e-07, 4.58858, 1.19209e-07, 0, 0, 7.5794, 0.189135, 10.0844, 2.15174 )
shape = SubResource( 1 )

[connection signal="textbox" from="." to="." method="_on_NPC_textbox"]
[connection signal="textbox_end" from="." to="." method="_on_NPC_textbox_end"]
